Cody Markelz - Scraping Weather Data
…
# Right click on the page and get the xpath to a specific table
xpath <- "/html/body/div[2]/main/div/article/div/table[2]"
weather <- html_nodes(html, xpath = xpath)
html_table(weather)

[[1]]
# A tibble: 131 × 21
   Observed an…¹ Obser…² Obser…³ Obser…⁴ Obser…⁵ Obser…⁶ Obser…⁷ Obser…⁸ Obser…⁹
   <chr>         <chr>   <chr>   <chr>   <chr>   <chr>   <chr>   <chr>   <chr>  
 1 ""            Ob Tem… Ob Tem… Ob Tem… Ob Win… Ob Win… Ob Win… Ob Win… Ob Win…
 2 "Date"        Min     Max     Avg     Min     Max     Avg     Gust    Dir    
 3 "2023 03/28"  16.5    23.5    18      5.5     20      9.5     42.93   SSE    
 4 "2023 03/27"  16.5    23.5    18      5.5     20      11.5    42.93   SSE    
 5 "2023 03/26"  4       28      15.5    1       10.5    5.5     24.54   SE     
 6 "2023 03/25"  6.5     22      15      5.5     33.5    16.5    67.47   NW     
 7 "2023 03/24"  5       24      14.5    4.5     39      22      61.34   NW     
 8 "2023 03/23"  12.5    29      19.5    8.5     39      20      67.47   WNW    
 9 "2023 03/22"  19      28.5    23.5    7       11.5    10      30.66   WNW    
10 "2023 03/21"  19      28.5    23.5    4.5     37      25.5    67.47   E      
# … with 121 more rows, 12 more variables:
#   `Observed and Forecast Weather by Day` <chr>,
#   `Observed and Forecast Weather by Day` <chr>,
#   `Observed and Forecast Weather by Day` <chr>,
#   `Observed and Forecast Weather by Day` <chr>,
#   `Observed and Forecast Weather by Day` <chr>,
#   `Observed and Forecast Weather by Day` <chr>, …
…
