…
norcal_geometry <- paste('POLYGON((-122.6 41.35, -122.35 41.35, -122.35 41.25, -122.4 41.25, -122.6 41.25, -122.6 41.35))')

mm_species <- c("pinus balfouriana") # can add multiple species here for larger query

foxtail_data <- occ_data(scientificName = mm_species, hasCoordinate = TRUE, limit = 10000,
                   geometry = norcal_geometry)
foxtail_data

## Records found [50] 
## Records returned [50] 
## Args [hasCoordinate=TRUE, limit=10000, offset=0, scientificName=pinus
##      balfouriana, geometry=POLYGON((-122.6 41.35, -122.35 41.35, -122.35 41.25,
##      -122.4 41.25, -122.6 41.25, -122.6 41.35))] 
## # A tibble: 50 × 119
##    key    scien…¹ decim…² decim…³ issues datas…⁴ publi…⁵ insta…⁶ publi…⁷ proto…⁸
##    <chr>  <chr>     <dbl>   <dbl> <chr>  <chr>   <chr>   <chr>   <chr>   <chr>  
##  1 39472… Pinus …    41.3   -122. cdc,c… 50c950… 28eb1a… 997448… US      DWC_AR…
##  2 39471… Pinus …    41.3   -122. cdc,c… 50c950… 28eb1a… 997448… US      DWC_AR…
##  3 39474… Pinus …    41.3   -122. cdc,c… 50c950… 28eb1a… 997448… US      DWC_AR…
##  4 39612… Pinus …    41.3   -122. cdc,c… 50c950… 28eb1a… 997448… US      DWC_AR…
##  5 39612… Pinus …    41.3   -122. cdc,c… 50c950… 28eb1a… 997448… US      DWC_AR…
##  6 39475… Pinus …    41.3   -122. cdc,c… 50c950… 28eb1a… 997448… US      DWC_AR…
##  7 39857… Pinus …    41.3   -122. cdc,c… 50c950… 28eb1a… 997448… US      DWC_AR…
##  8 38922… Pinus …    41.3   -122. cdc,c… 50c950… 28eb1a… 997448… US      DWC_AR…
##  9 39610… Pinus …    41.3   -122. cdc,c… 50c950… 28eb1a… 997448… US      DWC_AR…
## 10 39610… Pinus …    41.3   -122. cdc,c… 50c950… 28eb1a… 997448… US      DWC_AR…
## # … with 40 more rows, 109 more variables: lastCrawled <chr>, lastParsed <chr>,
## #   crawlId <int>, hostingOrganizationKey <chr>, basisOfRecord <chr>,
## #   occurrenceStatus <chr>, taxonKey <int>, kingdomKey <int>, phylumKey <int>,
## #   classKey <int>, orderKey <int>, familyKey <int>, genusKey <int>,
## #   speciesKey <int>, acceptedTaxonKey <int>, acceptedScientificName <chr>,
## #   kingdom <chr>, phylum <chr>, order <chr>, family <chr>, genus <chr>,
## #   species <chr>, genericName <chr>, specificEpithet <chr>, taxonRank <chr>, …
…
