Mount Eddy Trail Run – Cody Markelz
…
norcal_geometry <- paste('POLYGON((-122.6 41.35, -122.6 41.25, -122.4 41.25, -122.35 41.25, -122.35 41.35, -122.6 41.35))')

mm_species <- c("pinus balfouriana") # can add multiple species here for larger query

foxtail_data <- occ_data(scientificName = mm_species, hasCoordinate = TRUE, limit = 10000,
                   geometry = norcal_geometry)
foxtail_data

Records found [74] 
Records returned [74] 
Args [hasCoordinate=TRUE, occurrenceStatus=PRESENT, limit=10000, offset=0,
     scientificName=pinus balfouriana, geometry=POLYGON((-122.6 41.35, -122.6
     41.25, -122.4 41.25, -122.35 41.25, -122.35 41.35, -122.6 41.35))] 
# A tibble: 74 × 124
   key    scien…¹ decim…² decim…³ issues datas…⁴ publi…⁵ insta…⁶ hosti…⁷ publi…⁸
   <chr>  <chr>     <dbl>   <dbl> <chr>  <chr>   <chr>   <chr>   <chr>   <chr>  
 1 41657… Pinus …    41.3   -122. cdc,c… 50c950… 28eb1a… 997448… 28eb1a… US     
 2 41657… Pinus …    41.3   -122. cdc,c… 50c950… 28eb1a… 997448… 28eb1a… US     
 3 44002… Pinus …    41.3   -122. cdc,c… 50c950… 28eb1a… 997448… 28eb1a… US     
 4 43998… Pinus …    41.3   -122. cdc,c… 50c950… 28eb1a… 997448… 28eb1a… US     
 5 44000… Pinus …    41.3   -122. cdc,c… 50c950… 28eb1a… 997448… 28eb1a… US     
 6 44001… Pinus …    41.3   -122. cdc,c… 50c950… 28eb1a… 997448… 28eb1a… US     
 7 43999… Pinus …    41.3   -122. cdc,c… 50c950… 28eb1a… 997448… 28eb1a… US     
 8 44004… Pinus …    41.3   -122. cdc    50c950… 28eb1a… 997448… 28eb1a… US     
 9 44049… Pinus …    41.3   -122. cdc,c… 50c950… 28eb1a… 997448… 28eb1a… US     
10 44363… Pinus …    41.3   -122. cdc,c… 50c950… 28eb1a… 997448… 28eb1a… US     
# … with 64 more rows, 114 more variables: protocol <chr>, lastCrawled <chr>,
#   lastParsed <chr>, crawlId <int>, basisOfRecord <chr>,
#   occurrenceStatus <chr>, taxonKey <int>, kingdomKey <int>, phylumKey <int>,
#   classKey <int>, orderKey <int>, familyKey <int>, genusKey <int>,
#   speciesKey <int>, acceptedTaxonKey <int>, acceptedScientificName <chr>,
#   kingdom <chr>, phylum <chr>, order <chr>, family <chr>, genus <chr>,
#   species <chr>, genericName <chr>, specificEpithet <chr>, taxonRank <chr>, …
…
