Cody Markelz - Miracle Mile Conifer Species
…
$meta
$meta$offset
[1] 0

$meta$limit
[1] 300

$meta$endOfRecords
[1] TRUE

$meta$count
[1] 151

$data
# A tibble: 151 × 125
   key    scien…¹ decim…² decim…³ issues datas…⁴ publi…⁵ insta…⁶ publi…⁷ proto…⁸
   <chr>  <chr>     <dbl>   <dbl> <chr>  <chr>   <chr>   <chr>   <chr>   <chr>  
 1 39470… Pinus …    41.2   -123. cdc,c… 50c950… 28eb1a… 997448… US      DWC_AR…
 2 39474… Pinus …    41.2   -123. cdc,c… 50c950… 28eb1a… 997448… US      DWC_AR…
 3 39472… Pinus …    41.3   -122. cdc,c… 50c950… 28eb1a… 997448… US      DWC_AR…
 4 39612… Pinus …    41.2   -123. cdc,c… 50c950… 28eb1a… 997448… US      DWC_AR…
 5 38729… Pinus …    41.2   -123. cdc,c… 50c950… 28eb1a… 997448… US      DWC_AR…
 6 38734… Pinus …    41.2   -123. cdc,c… 50c950… 28eb1a… 997448… US      DWC_AR…
 7 39609… Pinus …    40.9   -123. cdc,c… 50c950… 28eb1a… 997448… US      DWC_AR…
 8 40548… Pinus …    41.3   -122. cdc,c… 50c950… 28eb1a… 997448… US      DWC_AR…
 9 38736… Pinus …    41.3   -123. cdc,c… 50c950… 28eb1a… 997448… US      DWC_AR…
10 39471… Pinus …    41.3   -122. cdc,c… 50c950… 28eb1a… 997448… US      DWC_AR…
# … with 141 more rows, 115 more variables: lastCrawled <chr>,
#   lastParsed <chr>, crawlId <int>, hostingOrganizationKey <chr>,
#   basisOfRecord <chr>, occurrenceStatus <chr>, taxonKey <int>,
#   kingdomKey <int>, phylumKey <int>, classKey <int>, orderKey <int>,
#   familyKey <int>, genusKey <int>, speciesKey <int>, acceptedTaxonKey <int>,
#   acceptedScientificName <chr>, kingdom <chr>, phylum <chr>, order <chr>,
#   family <chr>, genus <chr>, species <chr>, genericName <chr>, …
…
