Cody Markelz - Sugar Pine (Pinus lambertiana)
…
$meta
$meta$offset
[1] 300

$meta$limit
[1] 2

$meta$endOfRecords
[1] TRUE

$meta$count
[1] 302

$data
# A tibble: 302 × 120
   key    scien…¹ decim…² decim…³ issues datas…⁴ publi…⁵ insta…⁶ publi…⁷ proto…⁸
   <chr>  <chr>     <dbl>   <dbl> <chr>  <chr>   <chr>   <chr>   <chr>   <chr>  
 1 40463… Pinus …    41.3   -122. cdc,c… 50c950… 28eb1a… 997448… US      DWC_AR…
 2 40463… Pinus …    41.3   -122. cdc,c… 50c950… 28eb1a… 997448… US      DWC_AR…
 3 34993… Pinus …    41.9   -124. cdc    50c950… 28eb1a… 997448… US      DWC_AR…
 4 37057… Pinus …    41.5   -124. cdc,c… 50c950… 28eb1a… 997448… US      DWC_AR…
 5 37053… Pinus …    41.2   -122. cdc,c… 50c950… 28eb1a… 997448… US      DWC_AR…
 6 37472… Pinus …    40.9   -124. cdc    50c950… 28eb1a… 997448… US      DWC_AR…
 7 37598… Pinus …    41.8   -124. cdc,c… 50c950… 28eb1a… 997448… US      DWC_AR…
 8 39613… Pinus …    40.4   -123. cdc,c… 50c950… 28eb1a… 997448… US      DWC_AR…
 9 37642… Pinus …    41.9   -124. cdc,c… 50c950… 28eb1a… 997448… US      DWC_AR…
10 37603… Pinus …    41.9   -124. cdc,c… 50c950… 28eb1a… 997448… US      DWC_AR…
# … with 292 more rows, 110 more variables: lastCrawled <chr>,
#   lastParsed <chr>, crawlId <int>, hostingOrganizationKey <chr>,
#   basisOfRecord <chr>, occurrenceStatus <chr>, taxonKey <int>,
#   kingdomKey <int>, phylumKey <int>, classKey <int>, orderKey <int>,
#   familyKey <int>, genusKey <int>, speciesKey <int>, acceptedTaxonKey <int>,
#   acceptedScientificName <chr>, kingdom <chr>, phylum <chr>, order <chr>,
#   family <chr>, genus <chr>, species <chr>, genericName <chr>, …
…
